{
  "name": "grunt_sfdc_runner",
  "description": "Runner for SalesForce resources in conjunction with the SfdcAntProject",
  "version": "0.1.0",
  "homepage": "https://bitbucket.org/paulroth3d/sfdcgruntrunner",
  "author": {
    "name": "Paul Roth",
    "email": "proth@salesforce.com"
  },
  "repository": {
    "type": "git",
    "url": "git@bitbucket.org:paulroth3d/sfdcgruntrunner.git"
  },
  "bugs": {
    "url": "https://bitbucket.org/paulroth3d/sfdcgruntrunner/issues"
  },
  "licenses": [
    {
      "type": "MIT",
      "url": "https://github.com/proth/gruntplugin/blob/master/LICENSE-MIT"
    }
  ],
  "engines": {
    "node": ">= 0.8.0"
  },
  "scripts": {
    "test": "grunt test"
  },
  
  "devDependencies": {
    "grunt": "~0.4.5",
    "grunt-ant-sfdc": "^0.2.6",
    "grunt-cli": "^0.1.13",
    "grunt-contrib-clean": "^0.6.0",
    "grunt-contrib-compress": "^0.12.0",
    "grunt-contrib-concat": "^0.5.0",
    "grunt-contrib-copy": "^0.7.0",
    "grunt-contrib-jshint": "^0.10.0",
    "grunt-contrib-sass": "^0.9.2",
    "grunt-contrib-nodeunit": "^0.3.3",
    "grunt-contrib-uglify": "^0.6.0",
    "grunt-contrib-watch": "^0.6.1"
  },
  
  "sfdc_runner": {
  	 
  	 "_comment": "-- Path to folder where the extracted static resources are found",
  	 "_comment": "-- for sfdcantprojects, this would be 'resources'",
  	 "_comment": "-- for mavensmate projects, this would likely be 'resource-bundles'",
  	 
  	 "resourcesPath": "resources",
  	 
  	 "_comment": "--regular expression used to determine the folder used as exploded static resource",
  	 "_comment": "-- this allows us to determine whether the file changed actually belongs to a static resource or not",
  	 "_comment": "-- note: this would likely include the resourcesPath above",
  	 
  	 "_comment": "-- EX - sfdcantprojects: resources/([^/]+)/",
  	 "_comment": "-- EX - mavensmate     : resource-bundles/([^/]+)/",
  	 
  	 
  	 "resourceFolderPattern": "resources/([^/]+)/",
  	 
  	 "_comment": "-- list of resources with their minification file, and path",
  	 "_comment": "-- USE [RESOURCE] within the minification file path to use the name of the resource",
  	 "_comment": "-- EX: [RESOURCE]-min.js could provide resources/pb_Foundation_zip/pb_Foundation-zip.js",
  	 
  	 "concat": {
  	    
  	 	"_comment": "resource_name : { '/path/to/minified-file.js' : [ '/included first/**/*.js', 'included/second/**/*.js' ] }",
  	 	
  	 	"_comment": "EX:",
  	    "_comment": "pb_Foundation: {",
  	    "_comment": "js/foundation-min.js : [js/foundation/**/*.js],",
  	    "_comment": "js/vendor-min.js : [js/vendor/**/*.js]",
  	    "_comment": "}",
  	    
  	    "pb_Foundation": {
  	       "static/min_js/foundation-min.js": [ "static/js/foundation/**/*.js" ],
  	       "static/min_js/vendor-min.js": [ "static/js/vendor/**/*.js" ]
  	    }
  	 }
  }
}
